C:\work\software\netbeans\a1.3\dbanalyzer-core\src\main\java\com\db\demomidtier\DBConnector.java
C:\work\software\netbeans\a1.3\dbanalyzer-core\src\main\java\com\db\demomidtier\LoginController.java
C:\work\software\netbeans\a1.3\dbanalyzer-core\src\main\java\com\db\demomidtier\UserData.java
C:\work\software\netbeans\a1.3\dbanalyzer-core\src\main\java\com\db\demomidtier\Utils.java
C:\work\software\netbeans\a1.3\dbanalyzer-core\src\main\java\com\db\demomidtier\PropertyLoader.java
