C:\work\software\netbeans\a1.3\dbanalyzer-core\src\test\java\com\db\demomidtier\UtilsTest.java
C:\work\software\netbeans\a1.3\dbanalyzer-core\src\test\java\com\db\demomidtier\LoginControllerTest.java
C:\work\software\netbeans\a1.3\dbanalyzer-core\src\test\java\com\db\demomidtier\PropertyLoaderTest.java
C:\work\software\netbeans\a1.3\dbanalyzer-core\src\test\java\com\db\demomidtier\DBConnectorTest.java
C:\work\software\netbeans\a1.3\dbanalyzer-core\src\test\java\com\db\demomidtier\UserDataTest.java
